[{
        "name": "áo blazer",
        "code": "NJH1234",
        "define": "Áo blazer trắng lần này các NTK K&K Fashion ra mắt với gam màu kem trung tính \n phù hợp với mọi tone da và đặc biệt sẽ làm dịu đi cái nắng mùa hè.",
        "fabric_material": " Chất liệu Bố",
        "style": "Phong cách thời trang cổ điển",
        "model": "Sọc ca rô",
        "picture": "https://img.ltwebstatic.com/images3_pi/2022/01/13/1642055291aab457dc3510e92b1af4eb379b371b86_thumbnail_600x.webp",
        "color": "Màu be",
        "size": "S, M, L, XL",
        "price": "470.000đ"
    },
    {
        "name": "quần short",
        "code": "GHK0993",
        "define": "Điểm đặc biệt khi chọn quần trắng đó chính là chất liệu phải thật dày dặn để người mặc tự tin.",
        "fabric_material": "Chất liệu Tuyết mưa",
        "style": "Phong cách thời trang tối giản",
        "model": "Hình nón",
        "picture": "https://img.ltwebstatic.com/images3_pi/2021/09/18/163194763446cdb37b735f343a128b9e5e0f1745b9_thumbnail_405x552.webp",
        "color": "Màu trắng tuyết",
        "size": "S, M, L, XL",
        "price": "450.000đ"
    },
    {
        "name": "chân váy jeans",
        "code": "BGY1093",
        "define": "Được may trên nền vải kate pho dày dặn vừa phải và thấm hút mồ hôi tốt, nên nàng có thể yên tâm vì độ thoải mái.",
        "fabric_material": "Chất liệu Kate pho",
        "style": "Phong cách tự do",
        "model": "Xẻ tà",
        "picture": "https://salt.tikicdn.com/cache/280x280/ts/product/e8/4c/5c/073b49b533b3c6d26237d4cc5489c0d2.jpg",
        "color": "Màu xanh đen",
        "size": "S, M, L, XL, XXL",
        "price": "400.000đ"
    },
    {
        "name": "dazy đầm buộc",
        "code": "SAT1009",
        "define": "Kiểu đầm được thiết kế với các chi tiết tinh tế đẹp mắt: đính hàng cúc chạy dọc thân đầm\ncác đường chít ben tỉ mỉ, tay lỡ phồng thời thượng.",
        "fabric_material": "Vải Line",
        "style": "Phong cách Boho",
        "model": "Váy chữ A, cổ chữ V",
        "picture": "https://cdn.kkfashion.vn/13507-large_default/dam-trang-chu-a-co-v-dinh-cuc-hl18-39.jpg?w=480",
        "color": "Màu trắng ngọc",
        "size": "S, M, XL",
        "price": "500.000đ"
    },
    {
        "name": "đầm thun công sở",
        "code": "DMS9292",
        "define": "Với gam màu trắng tinh khôi làm chủ đạo, chiếc đầm chữ a công sở giúp người diện trở nên trẻ trung, tràn đầy sức sống hơn.",
        "fabric_material": "Thun Ý",
        "style": "Phong cách Bohemian",
        "model": "Đầm công sở",
        "picture": "https://cdn.kkfashion.vn/12827-large_default/dam-thun-cong-so-hoa-tiet-cham-bi-kk111-18.jpg?w=480",
        "color": "Nền trắng họa tiết chấm bi đen",
        "size": "S, M, L, XL",
        "price": "560.000đ"
    },
    {
        "name": "đầm sơ mi",
        "code": "DMJ1229",
        "define": "Chiếc đầm sơ mi đơn giản của chất liệu đũi mềm mại, thích hợp với mọi thời tiết.\nTay con che đi phần vai thô tạo cân đối với form xòe.",
        "fabric_material": "Chất liệu Đũi",
        "style": "Phong cách preppy",
        "model": "Đầm có nơ thắt",
        "picture": "https://cdn.kkfashion.vn/8981-large_default/dam-so-mi-hoa-tiet-ke-phoi-no-kk107-26.jpg?w=480",
        "color": "Nền xanh sọc trắng",
        "size": "Free size",
        "price": "530.000đ"
    },
    {
        "name": "chân váy midi",
        "code": "HNJ2991",
        "define": "Chân váy được may bằng chất liệu cotton hàn mềm mại, nhẹ nhàng có lớp lót cho nàng thoải mái.",
        "fabric_material": "Chất liệu Cotton Hàn",
        "style": "Phong cách tự do",
        "model": "Phần thân váy được may 2 vạt nhỏ cách điệu phía trước giảm tập trung thị giác vào phần bụng",
        "picture": "https://cdn.kkfashion.vn/11775-large_default/chan-vay-midi-dang-chu-a-cv04-04.jpg?w=480",
        "color": "Màu Kem",
        "size": "S, M, L, XL",
        "price": "350.000đ"
    },
    {
        "name": "đầm hoa nhí",
        "code": "DAMNH8282",
        "define": "Chất liệu lanh nhật cao cấp thoáng mát, thấm hút mồ hôi tốt lại còn không nhăn nhàu.",
        "fabric_material": "Chất liệu Lanh Nhật",
        "style": "Phong cách thời trang cổ điển",
        "model": "Tay dài cho nàng ngại bắp tay to, điểm nhấn đặc biệt của cả thiết kế đó chính là phần bèo trước ngực làm cho tổng thể điệu đà hơn hẳn",
        "picture": "https://cdn.kkfashion.vn/12803-large_default/dam-hoa-nhi-vien-beo-tung-vay-xep-tang-kk111-01.jpg?w=480",
        "color": "Nền trắng họa tiết hoa nhiều màu",
        "size": "Free size",
        "price": "600.000đ"
    },
    {
        "name": "glowmode legging",
        "code": "TTX0299",
        "define": "Với chất liệu co dãn không thể nhìn xuyên qua, kéo dài 4 chiều, bơ mềm, thêm sợi TACTEL",
        "fabric_material": "Chất liệu Căng cao",
        "style": "Phong cách thể thao",
        "model": "Dành cho tập thể thao, yoga",
        "picture": "https://img.ltwebstatic.com/images3_pi/2021/06/30/16250442465aa72f7784165e8db352e90ff0d53ab6_thumbnail_405x552.webp",
        "color": "Màu đen",
        "size": "Free size",
        "price": "460.000đ"
    },
    {
        "name": "áo sơ mi công sở nữ tay lỡ",
        "code": "AOSM0833",
        "define": "Mẫu áo sẽ phát huy nét lịch sự, nghiêm túc hơn nữa còn tôn đường cong cơ thể.",
        "fabric_material": "Chất liệu Lụa cao cấp",
        "style": "Phong cách thời trang cổ điển",
        "model": "Mẫu áo sơ mi nữ ASM05-14 được may bằng chất liệu lụa mềm mại, thoáng mát\n form suông rộng rãi, thiết kế cổ V phối nút cuốn hút cùng tay lỡ thanh lịch, che bắp tay to hiệu quả",
        "picture": "https://cdn.kkfashion.vn/7034-large_default/ao-so-mi-cong-so-nu-tay-lo-asm05-14.jpg?w=480",
        "color": "Màu xanh",
        "size": "S, M, XL",
        "price": "300.000đ"
    },
    {
        "name": "áo kiểu nữ cổ đổ tay dài",
        "code": "AOKI2456",
        "define": "Ngoài chất vải mềm mại, thì điểm nhấn của mẫu áo nữ này chính là phần cổ đổ thời thượng,\ncàng làm tăng thêm nét nhã nhặn và dịu dàng cho các quý cô",
        "fabric_material": "Chất liệu phi tuyết cao cấp",
        "style": "Phong cách thời trang cổ điển",
        "model": "Thiết kế của áo kiểu này khá đơn giản nhưng vẫn giữ được sự thanh lịch, sang trọng nhất.",
        "picture": "https://mcdn.nhanh.vn/store3/108661/ps/20211130/DSC_8681_thumb.jpg",
        "color": "Nâu cam",
        "size": "S, M, L",
        "price": "490.000đ"
    },
    {
        "name": "đầm xòe hoa công sở phối nơ ngực",
        "code": "DOX2944",
        "define": "Những đường xếp ly tự nhiên ở tùng váy, điểm nhấn nơ, tuy đơn giản nhưng cũng giúp tổng thể trang phục thêm phần ấn tượng.",
        "fabric_material": "Chất liệu voan nhung",
        "style": "Phong cách tự do",
        "model": " Thiết kế trên nền vải voan nhung nhẹ tênh, mát rượi, đi kèm lớp lót kín đáo không sợ mỏng manh hớ hênh,\ncùng tone màu hoa pastel tươi sáng, ngọt ngào, tôn da, mẫu đầm tạo nên phong cách trẻ trung mà vẫn thật dịu dàng, nhẹ nhàng",
        "picture": "https://cdn.kkfashion.vn/12978-large_default/dam-xoe-hoa-cong-so-phoi-no-nguc-kk111-24.jpg?w=480",
        "color": "Nền xanh họa tiết hoa nhiều màu",
        "size": "Free size",
        "price": "390.000đ"
    },
    {
        "name": "quần tây nữ công sở đai cách điệu",
        "code": "QCS03-03",
        "define": "Hẳn là nàng nào cũng đã sở hữu cho mình những chiếc quần tây công sở basic\nnhưng hôm nay hãy thử thêm một chiếc quần công sở với gam màu lạ mắt hơn, như màu xanh mát dịu của QCS03-03 chẳng hạn",
        "fabric_material": "Chất liệu Cotton Hàn",
        "style": "Phong cách preppy",
        "model": "Không chỉ nổi bật ở sắc xanh mà chiếc quần tây nữ công sở QCS03-03 còn gây ấn tượng bởi chi tiết đai cách điệu được may chéo trước bụng\nvừa thời trang lại có thể giúp các quý cô che khéo đi lượng mỡ thừa ở vùng bụng.",
        "picture": "https://cdn.kkfashion.vn/12685-large_default/quan-tay-nu-cong-so-dai-cach-dieu-qcs03-03.jpg?w=480",
        "color": "Màu xanh",
        "size": "S, M, L",
        "price": "320.000đ"
    },
    {
        "name": "balo phối ngăn mini",
        "code": "BL132",
        "define": "Thiết kế hiện đại, trẻ trung năng động phù hợp mọi hoàn cảnh, mọi công việc.",
        "fabric_material": "Da tổng hợp",
        "model": "Balo thời trang",
        "picture": "https://product.hstatic.net/1000003969/product/xanh-la_bl132_1_66c4d70641d74629a22c858774c1dc89_grande.jpg",
        "color": "Màu xanh lá",
        "size": "22cmx27cmx11cm",
        "price": "780.000đ"
    },
    {
        "name": "balo phối khoá kéo thân trước",
        "code": "BL129",
        "define": "Thiết kế hiện đại, trẻ trung, có kéo trước túi",
        "fabric_material": "Da tổng hợp",
        "model": "Balo thời trang",
        "picture": "https://product.hstatic.net/1000003969/product/xanh_bl129_1_507154c0f66f4fdcba585418eeaa3265_grande.jpg",
        "color": "Màu xanh ngọc bích",
        "size": "28cmx26cmx13cm",
        "price": "890.000đ"
    },
    {
        "name": "túi xách nhỏ đeo chéo pretty nerdy",
        "code": "TXN533",
        "define": "Thiết kế đơn giản, nấp gặp, thiết kế caro",
        "fabric_material": "Da tổng hợp",
        "model": "Túi xách thời trang",
        "picture": "https://product.hstatic.net/1000003969/product/hong-nhat_txn533_4_26179386cd264ed7922750587a8ed10e_master.jpg",
        "color": "Màu hồng phấn",
        "size": "21cmx18cmx7cm",
        "price": "690.000đ"
    },
    {
        "name": "giày cao gót slingback",
        "code": "CG07108",
        "define": "Giày cao gót PABNO mang vẻ đẹp nhẹ nhàng giúp tôn lên vẻ đẹp phụ nữ Á Đông.",
        "fabric_material": "Da cá sấu",
        "model": "Giày cao gót mũi nhọn",
        "high": "7cm",
        "picture": "https://product.hstatic.net/1000003969/product/trang-kem_cg07108_5_715060f75ee647fdb82530daabc83dd7_master.jpg",
        "color": "Màu hồng, trắng ngọc",
        "size": "35-36-37-38-39 ",
        "price": "470.000đ"
    },
    {
        "name": "giày búp bê quai chéo gắn khoá hoa trang trí",
        "code": "BB03086",
        "define": "Giày búp bê quai chéo gắn khoá hoa trang trí sở hữu thiết kế tinh giản bất khi diện lên người đều khiến bản thân cảm thấy tự tin và thoải mái hơn.",
        "fabric_material": "Da tổng hợp",
        "model": "Giày búp bê",
        "high": "3cm",
        "picture": "https://product.hstatic.net/1000003969/product/xanh-la_bb03086_3_d04d091c50c643538c361ce22c9cf787_master.jpg",
        "color": "Màu xanh lá-Vàng-Đen",
        "size": "35-36-37-38-39",
        "price": "450.000đ"
    },
    {
        "name": "giày búp bê mũi nhọn quai cách điệu",
        "code": "BB03082",
        "define": "Mang vẻ đẹp hiện đại với gam màu sang trọng hay nude trẻ trung cùng nghệ thuật tạo form đẳng cấp",
        "fabric_material": "Da tổng hợp",
        "model": "Giày búp bê",
        "high": "3cm",
        "picture": "https://product.hstatic.net/1000003969/product/hong_bb03082_3_5f21b24e67a34e548e42a759f26ee46f_master.jpg",
        "color": "Nâu nhạt-Đen-Hồng",
        "size": "35-36-37-38-39",
        "price": "380.000đ"
    },
    {
        "name": "sneakers phoenix",
        "code": "TT05008",
        "define": "Sở hữu thiết kế thời trang, năng động cùng chất liệu bền bỉ hỗ trợ vận động tốt và bảo vệ đôi chân cho người mang.",
        "fabric_material": "Da tổng hợp",
        "model": "Giày sneaker",
        "high": "5cm",
        "picture": "https://product.hstatic.net/1000003969/product/bac_tt05008_3_12e4ed322ea04d3e87fa71061cc92e3d_master.jpg",
        "color": "Vàng-Kem-Bạc",
        "size": "35-36-37-38-39",
        "price": "880.000đ"
    },
    {
        "name": "sneaker angelic garden",
        "code": "TT03035",
        "define": " Đế cao su mềm, êm ái giúp bạn cảm thấy dễ chịu khi di chuyển trong thời gian dài,\ntính năng thoáng khí, giúp cân bằng nhiệt và độ ẩm trong những điều kiện môi trường khác nhau.",
        "fabric_material": "Da cá xấu",
        "model": "Giày sneaker",
        "high": "3cm",
        "picture": "https://product.hstatic.net/1000003969/product/xanh_tt03035_3_15904fc6fe234a9fab717932647c4cf6_master.jpg",
        "color": "Xanh-Trắng-Tím-Hồng",
        "size": "35-36-37-38-39 ",
        "price": "682.000đ"
    },
    {
        "name": "giày cao gót dây",
        "code": "CG07103",
        "define": "Với thiết kế chéo dây, xịn xò từ chất liệu đến kiểu dáng\nbạn có thể dễ dàng phối trang phục theo sở thích và mục đích sử dụng của mình.",
        "fabric_material": "Da tổng hợp",
        "model": "Giày cao gót",
        "high": "7cm",
        "picture": "https://product.hstatic.net/1000003969/product/xanh_cg07103_3_e814130c90c04a0283267a7fd21cce37_master.jpg",
        "color": "Xanh-Kem hồng-Đen",
        "size": "35-36-37-38-39 ",
        "price": "446.000đ"
    },
    {
        "name": "mắt kính vuông kim loại nhấn góc",
        "code": "MK079",
        "define": "Sản phẩm sử dụng chất liệu nhựa Acetate một loại nhựa có nguồn gốc từ sợi thực vật, thân thiện với môi trường, đi cùng chất liệu Titanium sang trọng",
        "fabric_material": "Kim loại",
        "model": "Kính mắt thời trang",
        "picture": "https://product.hstatic.net/1000003969/product/den_mk079_4_d18facb05b1f4c899a550503c5eb1055_master.jpg",
        "color": "Xanh-Đen-Hồng",
        "wide_glasses": "50mm",
        "glass_bridge": "21mm",
        "frame_length": "148mm",
        "price": "945.000đ"
    },
    {
        "name": "mắt kính avator kim loại",
        "code": "MK073",
        "define": "Kính râm Avator sở hữu form dáng Clubmaster hiện đại, tinh tế trong từng chi tiết được thiết kế khéo léo.",
        "fabric_material": "Kim loại",
        "model": "Kính mắt thời trang",
        "picture": "https://product.hstatic.net/1000003969/product/do_mk073_4_8ae1c648d90f43f2a123b1c0b9dc2c73_master.jpg",
        "color": "Xám đen-Đỏ",
        "wide_glasses": "58mm",
        "glass_bridge": "17mm",
        "frame_length": "147mm",
        "price": "486.000đ"
    },
    {
        "name": "mắt kính vuông gọng nhựa",
        "code": "MK071",
        "define": "Dáng kính Club hiện đại, tròng kính 0 độ chống UV400",
        "fabric_material": "Kim loại",
        "model": "Kính mắt thời trang",
        "picture": "https://product.hstatic.net/1000003969/product/den_mk071_4_ccea4e4dfbf9455aa05995ca45c098e4_master.jpg",
        "color": "Đen-Hồng-Xám",
        "wide_glasses": "54mm",
        "glass_bridge": "19mm",
        "frame_length": "145mm",
        "price": "446.000đ"
    },
    {
        "name": "mắt kính vuông kim loại trang trí viền",
        "code": "MK066",
        "define": "Kính râm sở hữu form dáng phi công cổ điển mang vẻ thời thượng",
        "fabric_material": "Kim loại",
        "model": "Kính mắt râm thời trang",
        "picture": "https://product.hstatic.net/1000003969/product/nau-do_mk066_4_4ff47b4da1b44b56b7319fff8a7557aa_master.jpg",
        "color": "Nâu đỏ-Tím-Xám",
        "wide_glasses": "58mm",
        "glass_bridge": "17mm",
        "frame_length": "147mm",
        "price": "446.000đ"
    }
]